…
The following data represent the minimum inhibitory concentrations
(MICs) of the 18 experimental populations evolved under increasing
vancomycin concentrations until they reached intermediate resistance
levels (4 - 8 $\mu$g/mL).

``` r
vancomycin_MICs <- read_csv(
  file = input_vanc_MICs,
  show_col_types = FALSE
)

print(vancomycin_MICs)
```

    ## # A tibble: 234 × 3
    ##    population   day MIC  
    ##         <dbl> <dbl> <chr>
    ##  1          1     1 1    
    ##  2          2     1 1.5  
    ##  3          3     1 1.5  
    ##  4          4     1 1    
    ##  5          5     1 1.5  
    ##  6          6     1 1.5  
    ##  7          7     1 1.5  
    ##  8          8     1 1    
    ##  9          9     1 1    
    ## 10         10     1 1.5  
    ## # ℹ 224 more rows
…
``` r
# --- Load and preprocess data ---

variants <- read_csv(
  file = input_mutations,
  show_col_types = FALSE
)

print(variants)
```

    ## # A tibble: 4,942 × 20
    ##       id population    DP    AD median_phred median_error consensus_score
    ##    <dbl> <chr>      <dbl> <dbl>        <dbl>        <dbl>           <dbl>
    ##  1     1 T1           142   141           34       0.0004            748.
    ##  2     2 T1           122   122           34       0.0004            511 
    ##  3     3 T1           109    10           34       0.0004            373.
    ##  4     4 T1           157     8           34       0.0004            619.
    ##  5     5 T1           133   133           34       0.0004            581.
    ##  6     6 T1           158     8           34       0.0004            617.
    ##  7     7 T1           167   167           34       0.0004            734.
    ##  8     8 T1           191    10           34       0.0004            758.
    ##  9     9 T1           164    12           34       0.0004            614.
    ## 10    10 T1           176    12           34       0.0004            634.
    ## # ℹ 4,932 more rows
    ## # ℹ 13 more variables: polymorphism_score <dbl>, notes <chr>,
    ## #   qualifying_mutation <lgl>, vancomycin <lgl>, evidence <chr>, seq_id <dbl>,
    ## #   position <dbl>, mutation_type <chr>, mutation <chr>, freq <dbl>,
    ## #   annotation <chr>, gene <chr>, description <chr>
…
    ## $similarity_results
    ## $similarity_results$`Average pairwise similarity`
    ## # A tibble: 2 × 2
    ##   group_1    avg
    ##   <chr>    <dbl>
    ## 1 C       0.0233
    ## 2 T       0.0631
    ## 
    ## $similarity_results$`Difference in means`
    ## difference 
    ## 0.03981136 
    ## 
    ## 
    ## $permutation_results
    ## # A tibble: 10,000 × 3
    ##    control treated difference
    ##      <dbl>   <dbl>      <dbl>
    ##  1  0.0198  0.0238   0.00394 
    ##  2  0.0208  0.0166  -0.00420 
    ##  3  0.0214  0.0137  -0.00764 
    ##  4  0.0206  0.0175  -0.00309 
    ##  5  0.0207  0.0204  -0.000291
    ##  6  0.0203  0.0200  -0.000281
    ##  7  0.0205  0.0227   0.00213 
    ##  8  0.0207  0.0217   0.000989
    ##  9  0.0212  0.0162  -0.00497 
    ## 10  0.0203  0.0186  -0.00168 
    ## # ℹ 9,990 more rows
    ## 
    ## $p_value
    ## [1] 0
…
print(odds_ratio_df)
```

    ## # A tibble: 368 × 7
    ##    feature stability_freq mean_coefficient odds_ratio ci_low ci_high direction
    ##    <chr>            <dbl>            <dbl>      <dbl>  <dbl>   <dbl> <chr>    
    ##  1 vraS             0.998            1.54        4.65   2.17   11.8  greater  
    ##  2 liaF             1                1.44        4.22   2.12    9.77 greater  
    ##  3 rpsU             0.999            1.40        4.07   2.11    9.89 greater  
    ##  4 yycH             0.992            1.24        3.44   1.54    8.14 greater  
    ##  5 atl_1            0.965            1.04        2.84   1.25    7.21 greater  
    ##  6 pdhC_2           0.759            0.849       2.34   1.07    6.54 greater  
    ##  7 cdaA             0.588            0.845       2.33   1.08    8.35 greater  
    ##  8 lyrA             0.803            0.828       2.29   1.07    6.42 greater  
    ##  9 srrA             0.866            0.819       2.27   1.04    5.90 greater  
    ## 10 alaS             0.583            0.737       2.09   1.05    5.92 greater  
    ## # ℹ 358 more rows
…
# Calculates collateral responses
collateral_responses <- calculate_collateral_responses(.x = collateral_MICs)

# Calculates summary statistics
CR_summary_stats <- perform_summary_stats(.x = collateral_responses)

list(
  collateral_responses = collateral_responses,
  collateral_responses_summary = CR_summary_stats
)
```

    ## $collateral_responses
    ## # A tibble: 432 × 5
    ##    population replicate antibiotic   MIC     CR
    ##    <chr>          <dbl> <chr>      <dbl>  <dbl>
    ##  1 1                  1 CFZ         0.25 -0.585
    ##  2 1                  2 CFZ         0.25 -0.585
    ##  3 1                  3 CFZ         0.25 -0.585
    ##  4 2                  1 CFZ         0.5   0.415
    ##  5 2                  2 CFZ         0.5   0.415
    ##  6 2                  3 CFZ         0.5   0.415
    ##  7 3                  1 CFZ         0.75  1    
    ##  8 3                  2 CFZ         0.75  1    
    ##  9 3                  3 CFZ         0.75  1    
    ## 10 4                  1 CFZ         0.25 -0.585
    ## # ℹ 422 more rows
    ## 
    ## $collateral_responses_summary
    ## # A tibble: 144 × 5
    ## # Groups:   antibiotic [8]
    ##    antibiotic population mean_MIC mean_CR state
    ##    <chr>      <chr>         <dbl>   <dbl> <chr>
    ##  1 CFZ        1             0.25   -0.585 -1   
    ##  2 CFZ        10            0.5     0.138 1    
    ##  3 CFZ        11            0.5     0     0    
    ##  4 CFZ        12            0.583   0.333 1    
    ##  5 CFZ        13            0.75    1     1    
    ##  6 CFZ        14            0.5     0.415 1    
    ##  7 CFZ        15            0.458   0.277 1    
    ##  8 CFZ        16            0.25   -0.585 -1   
    ##  9 CFZ        17            0.375  -0.277 -1   
    ## 10 CFZ        18            0.5     0     0    
    ## # ℹ 134 more rows
…
  plots <- generate_plots(
    data = .x,
    iterations = iterations
  )

  return(plots)
}

css_bootstrap_results <- perform_bootstrap_and_plot_css(.x = CR_summary_stats)

css_bootstrap_results
```

    ## $antibiotic_results
    ## # A tibble: 800 × 6
    ##        CSS replicate antibiotic lower_perc upper_perc point_est
    ##      <dbl>     <int> <chr>           <dbl>      <dbl>     <dbl>
    ##  1  0.206          1 CFZ            -0.172      0.387    0.0357
    ##  2  0.178          2 CFZ            -0.172      0.387    0.0357
    ##  3  0.0511         3 CFZ            -0.172      0.387    0.0357
    ##  4  0.129          4 CFZ            -0.172      0.387    0.0357
    ##  5 -0.134          5 CFZ            -0.172      0.387    0.0357
    ##  6  0.299          6 CFZ            -0.172      0.387    0.0357
    ##  7 -0.0280         7 CFZ            -0.172      0.387    0.0357
    ##  8  0.0389         8 CFZ            -0.172      0.387    0.0357
    ##  9  0.0806         9 CFZ            -0.172      0.387    0.0357
    ## 10  0.0764        10 CFZ            -0.172      0.387    0.0357
    ## # ℹ 790 more rows
    ## 
    ## $cluster_results
    ## # A tibble: 200 × 6
    ##      CSS replicate cluster lower_perc upper_perc point_est
    ##    <dbl>     <int> <chr>        <dbl>      <dbl>     <dbl>
    ##  1 0.198         1 0           0.0405      0.333     0.183
    ##  2 0.248         2 0           0.0405      0.333     0.183
    ##  3 0.194         3 0           0.0405      0.333     0.183
    ##  4 0.230         4 0           0.0405      0.333     0.183
    ##  5 0.303         5 0           0.0405      0.333     0.183
    ##  6 0.142         6 0           0.0405      0.333     0.183
    ##  7 0.209         7 0           0.0405      0.333     0.183
    ##  8 0.250         8 0           0.0405      0.333     0.183
    ##  9 0.314         9 0           0.0405      0.333     0.183
    ## 10 0.191        10 0           0.0405      0.333     0.183
    ## # ℹ 190 more rows
    ## 
    ## $both_results
    ## # A tibble: 1,600 × 9
    ##      CSS replicate antibiotic cluster lower_perc upper_perc point_est
    ##    <dbl>     <int> <chr>      <chr>        <dbl>      <dbl>     <dbl>
    ##  1 0.618         1 CFZ        0            0.403          1     0.618
    ##  2 0.618         2 CFZ        0            0.403          1     0.618
    ##  3 0.569         3 CFZ        0            0.403          1     0.618
    ##  4 1             4 CFZ        0            0.403          1     0.618
    ##  5 0.618         5 CFZ        0            0.403          1     0.618
    ##  6 0.785         6 CFZ        0            0.403          1     0.618
    ##  7 0.403         7 CFZ        0            0.403          1     0.618
    ##  8 0.569         8 CFZ        0            0.403          1     0.618
    ##  9 0.785         9 CFZ        0            0.403          1     0.618
    ## 10 0.667        10 CFZ        0            0.403          1     0.618
    ## # ℹ 1,590 more rows
    ## # ℹ 2 more variables: antibiotic_numeric <dbl>, y_offset <dbl>
    ## 
    ## $antibiotic_plot
…
